<svg width="28" height="17" viewBox="0 0 28 17" xmlns="http://www.w3.org/2000/svg">
    <rect class="fill-color" width="28" height="3" rx="2" />
    <rect class="fill-color" y="7" width="28" height="3" rx="2" />
    <rect class="fill-color" y="14" width="28" height="3" rx="2" />
</svg>
