<svg viewBox="0 0 20 20" xmlns="http://www.w3.org/2000/svg">
<g clip-path="url(#clip0)">
    <path fill-rule="evenodd" clip-rule="evenodd" d="M5.96475 3.40017C4.35431 4.25634 3.08447 5.60039 2.35346 7.22248C1.62245 8.84457 1.47143 10.6534 1.92397 12.3666C2.37651 14.0798 3.40715 15.6009 4.85497 16.6924C6.30279 17.784 8.08631 18.3845 9.92708 18.4003C11.7678 18.4161 13.5623 17.8463 15.0302 16.7798C16.4981 15.7132 17.5569 14.2101 18.0413 12.5049C18.5256 10.7998 18.4083 8.98864 17.7076 7.35426C17.0069 5.71988 15.7623 4.35425 14.1681 3.47057L15.0014 2.08481C16.9142 3.1455 18.4073 4.78439 19.2478 6.74565C20.0883 8.70691 20.2288 10.8802 19.6473 12.9261C19.0659 14.9721 17.7953 16.7757 16.0338 18.0553C14.2723 19.335 12.1191 20.0186 9.9103 19.9996C7.7015 19.9806 5.56142 19.2599 3.82413 17.9502C2.08684 16.6404 0.850111 14.8152 0.306996 12.7596C-0.236118 10.7039 -0.0550499 8.53341 0.821936 6.58695C1.69892 4.64048 3.22247 3.02757 5.15475 2L5.96475 3.40017Z"/>
    <path fill-rule="evenodd" clip-rule="evenodd" d="M9.375 8V-0.75H10.625V8H9.375Z"/>
</g>
<defs>
    <clipPath id="clip0">
        <rect width="20" height="20" fill="white"/>
    </clipPath>
</defs>
</svg>
