<svg xmlns="http://www.w3.org/2000/svg" viewBox="0 0 16 16">
    <path d="M2.5 4l10-3A1.5 1.5 0 0 1 14 2.5v2h-1v-2a.5.5 0 0 0-.5-.5L5.833 4H2.5z"/>
    <path fill-rule="evenodd" d="M1 5.5A1.5 1.5 0 0 1 2.5 4h11A1.5 1.5 0 0 1 15 5.5v8a1.5 1.5 0 0 1-1.5 1.5h-11A1.5 1.5 0 0 1 1 13.5v-8zM2.5 5a.5.5 0 0 0-.5.5v8a.5.5 0 0 0 .5.5h11a.5.5 0 0 0 .5-.5v-8a.5.5 0 0 0-.5-.5h-11z"/>
</svg>